{
    "getter": {
        "option": "wordpress\\info\\Option",
        "sidebar": "wordpress\\info\\Sidebar",
        "site": "wordpress\\info\\Site",
        "styles": "wordpress\\info\\Stylesheets",
        "scripts": "wordpress\\info\\Scripts",
        "logo": "wordpress\\info\\Logo",
        "rest": "wordpress\\info\\Rest",
        "uri": "wordpress\\info\\Uri"
    },
    "setter": {
        "option": "wordpress\\info\\Option",
        "styles": "wordpress\\info\\Stylesheets",
        "scripts": "wordpress\\info\\Scripts"
    },
    "aggregate": {
        "post": "wordpress\\aggregator\\PostAggregator",
        "menu": "wordpress\\aggregator\\MenuAggregator",
        "role": "wordpress\\aggregator\\RoleAggregator",
        "term": "wordpress\\aggregator\\TermAggregator",
        "category": "wordpress\\aggregator\\CategoryAggregator",
        "tag": "wordpress\\aggregator\\TagAggregator"
    },
    "evaluate": {
        "type": "wordpress\\evaluator\\TypeEvaluator",
        "title": "wordpress\\evaluator\\TitleEvaluator",
        "post-password": "wordpress\\evaluator\\PostPasswordEvaluator",
        "visibility": "wordpress\\evaluator\\VisibilityEvaluator",
        "preview": "wordpress\\evaluator\\PreviewEvaluator"
    },
    "populate": {
        "page": "wordpress\\populator\\PagePopulator"
    },
    "parse": {
        "admin": "wordpress\\parser\\AdminParser",
        "ajax": "wordpress\\parser\\AjaxParser",
        "archive": "wordpress\\parser\\ArchiveParser",
        "attachment": "wordpress\\parser\\AttachmentParser",
        "author": "wordpress\\parser\\AuthorParser",
        "blog": "wordpress\\parser\\BlogParser",
        "category": "wordpress\\parser\\CategoryParser",
        "comment": "wordpress\\parser\\CommentParser",
        "custom": "wordpress\\parser\\CustomParser",
        "404": "wordpress\\parser\\ErrorParser",
        "feed": "wordpress\\parser\\FeedParser",
        "footer": "wordpress\\parser\\FooterParser",
        "form": "wordpress\\parser\\FormParser",
        "head": "wordpress\\parser\\HeadParser",
        "index": "wordpress\\parser\\IndexParser",
        "login": "wordpress\\parser\\LoginParser",
        "menu": "wordpress\\parser\\MenuParser",
        "menu-item": "wordpress\\parser\\MenuItemParser",
        "page": "wordpress\\parser\\PageParser",
        "post": "wordpress\\parser\\PostParser",
        "preview": "wordpress\\parser\\PreviewParser",
        "rest": "wordpress\\parser\\RestParser",
        "search": "wordpress\\parser\\SearchParser",
        "tag": "wordpress\\parser\\TagParser",
        "term": "wordpress\\parser\\TermParser",
        "shortcodes": "wordpress\\parser\\ShortcodesParser",
        "user": "wordpress\\parser\\UserParser",
        "role": "wordpress\\parser\\RoleParser",
        "permission": "wordpress\\parser\\PermissionParser",
        "image": "wordpress\\parser\\ImageParser"
    },
    "register": {
        "menu": "wordpress\\register\\MenuRegister",
        "sidebar": "wordpress\\register\\SidebarRegister",
        "option": "wordpress\\register\\SettingsRegister",
        "rest": "wordpress\\register\\RestRegister",
        "script": "wordpress\\register\\ScriptRegister",
        "style": "wordpress\\register\\StylesheetRegister"
    },
    "sanitize": {},
    "query": {
        "query": "wordpress\\query\\Query",
        "user": "wordpress\\query\\UserQuery",
        "comment": "wordpress\\query\\CommentQuery",
        "term": "wordpress\\query\\TermQuery"
    },
    "widget": {}
}