{
    "scripts": {
        "placeholder-header": {
            "handle": "placeholder-header",
            "thirdparty": false,
            "details": {
                "source": {
                    "full": "dist/js/placeholder.js",
                    "min": "dist/js/placeholder.min.js",
                    "map": false
                },
                "version": "0.2.0",
                "dependencies": [],
                "footer": false
            }
        },
        "placeholder-footer": {
            "handle": "placeholder-footer",
            "thirdparty": false,
            "details": {
                "source": {
                    "full": "dist/js/placeholder.js",
                    "min": "dist/js/placeholder.min.js",
                    "map": false
                },
                "version": "0.2.0",
                "dependencies": [],
                "footer": true
            }
        },
        "ace": {
            "handle": "ace",
            "thirdparty": true,
            "details": {
                "source": {
                    "full": "dist/vendor/ace-builds/src-noconflict/ace.js",
                    "min": "dist/vendor/ace-builds/src-min-noconflict/ace.js",
                    "map": false
                },
                "version": "1.3.3",
                "dependencies": [],
                "footer": true
            }
        },
        "jquery": {
            "handle": "jquery",
            "thirdparty": true,
            "details": {
                "source": {
                    "full": "dist/vendor/jquery/dist/jquery.js",
                    "min": "dist/vendor/jquery/dist/jquery.min.js",
                    "map": false
                },
                "version": "3.3.1",
                "dependencies": [],
                "footer": true
            }
        },
        "bootstrap": {
            "handle": "bootstrap",
            "thirdparty": true,
            "details": {
                "source": {
                    "full": "dist/vendor/bootstrap/dist/js/bootstrap.bundle.js",
                    "min": "dist/vendor/bootstrap/dist/js/bootstrap.bundle.min.js",
                    "map": "dist/vendor/bootstrap/dist/js/bootstrap.bundle.js.map"
                },
                "version": "4.0.0",
                "dependencies": [
                    "jquery"
                ],
                "footer": true
            }
        },
        "material-design": {
            "handle": "material-design",
            "thirdparty": true,
            "details": {
                "source": {
                    "full": "dist/vendor/mdbootstrap/js/mdb.js",
                    "min": "dist/vendor/mdbootstrap/js/mdb.min.js",
                    "map": false
                },
                "version": "4.4.5",
                "dependencies": [
                    "jquery",
                    "bootstrap"
                ],
                "footer": true
            }
        },
        "bootstrap-toggle": {
            "handle": "bootstrap-toggle",
            "thirdparty": true,
            "details": {
                "source": {
                    "full": "dist/vendor/bootstrap-toggle/js/bootstrap-toggle.js",
                    "min": "dist/vendor/bootstrap-toggle/js/bootstrap-toggle.min.js",
                    "map": "dist/vendor/bootstrap-toggle/js/bootstrap-toggle.js.map"
                },
                "version": "2.2.1",
                "dependencies": [
                    "jquery",
                    "bootstrap"
                ],
                "footer": true
            }
        },
        "fontawesome": {
            "handle": "fontawesome",
            "thirdparty": true,
            "details": {
                "source": {
                    "full": "dist/vendor/fontAwesome/svg-with-js/js/fontawesome-all.js",
                    "min": "dist/vendor/fontAwesome/svg-with-js/js/fontawesome-all.min.js",
                    "map": false
                },
                "version": "4.0.0",
                "dependencies": [
                    "jquery"
                ],
                "footer": true
            }
        },
        "spectrum": {
            "handle": "spectrum",
            "thirdparty": true,
            "details": {
                "source": {
                    "full": "dist/vendor/spectrum/spectrum.js",
                    "min": false,
                    "map": false
                },
                "version": "1.8.0",
                "dependencies": [
                    "jquery"
                ],
                "footer": true
            }
        },
        "chroma": {
            "handle": "chroma",
            "thirdparty": true,
            "details": {
                "source": {
                    "full": "dist/vendor/chroma-js/chroma.js",
                    "min": "dist/vendor/chroma-js/chroma.min.js",
                    "map": false
                },
                "version": "1.3.5",
                "dependencies": [],
                "footer": true
            }
        },
        "common": {
            "handle": "common",
            "thirdparty": false,
            "details": {
                "source": {
                    "full": "dist/js/Sanctity.js",
                    "min": "dist/js/Sanctity.min.js",
                    "map": false
                },
                "version": "0.2.0",
                "dependencies": [
                    "placeholder-header",
                    "placeholder-footer",
                    "jquery",
                    "bootstrap"
                ],
                "footer": true
            }
        },
        "frontend": {
            "handle": "frontend",
            "thirdparty": false,
            "details": {
                "source": {
                    "full": "dist/js/frontend/frontend.js",
                    "min": "dist/js/frontend/frontend.min.js",
                    "map": false
                },
                "version": "0.2.0",
                "dependencies": [
                    "jquery",
                    "bootstrap",
                    "material-design",
                    "common"
                ],
                "footer": true
            }
        },
        "backend": {
            "handle": "backend",
            "thirdparty": false,
            "details": {
                "source": {
                    "full": "dist/js/backend/backend.js",
                    "min": "dist/js/backend/backend.min.js",
                    "map": false
                },
                "version": "0.2.0",
                "dependencies": [
                    "jquery",
                    "bootstrap",
                    "common"
                ],
                "footer": true
            }
        },
        "settings-style": {
            "handle": "settings-style",
            "thirdparty": false,
            "details": {
                "source": {
                    "full": "dist/js/admin/settings-style.js",
                    "min": "dist/js/admin/settings-style.min.js",
                    "map": false
                },
                "version": "0.2.0",
                "dependencies": [
                    "jquery",
                    "bootstrap",
                    "bootstrap-toggle",
                    "spectrum",
                    "chroma",
                    "common",
                    "settings",
                    "backend"
                ],
                "footer": true
            }
        },
        "settings-editor": {
            "handle": "settings-editor",
            "thirdparty": false,
            "details": {
                "source": {
                    "full": "dist/js/admin/settings-editor.js",
                    "min": "dist/js/admin/settings-editor.min.js",
                    "map": false
                },
                "version": "0.2.0",
                "dependencies": [
                    "common",
                    "settings",
                    "backend",
                    "ace"
                ],
                "footer": true
            }
        },
        "settings": {
            "handle": "settings",
            "thirdparty": false,
            "details": {
                "source": {
                    "full": "dist/js/admin/settings.js",
                    "min": "dist/js/admin/settings.min.js",
                    "map": false
                },
                "version": "0.2.0",
                "dependencies": [
                    "jquery",
                    "bootstrap",
                    "bootstrap-toggle",
                    "common",
                    "backend"
                ],
                "footer": true
            }
        }
    },
    "styles": {
        "bootstrap": {
            "handle": "bootstrap",
            "thirdparty": true,
            "details": {
                "source": {
                    "full": "dist/vendor/bootstrap/dist/css/bootstrap.css",
                    "min": "dist/vendor/bootstrap/dist/css/bootstrap.min.css",
                    "map": "dist/vendor/bootstrap/dist/css/bootstrap.css.map"
                },
                "version": "4.0.0",
                "dependencies": [],
                "media": "screen"
            }
        },
        "material-design": {
            "handle": "material-design",
            "thirdparty": true,
            "details": {
                "source": {
                    "full": "dist/vendor/mdbootstrap/css/mdb.css",
                    "min": "dist/vendor/mdbootstrap/css/mdb.min.css",
                    "map": false
                },
                "version": "4.4.5",
                "dependencies": [],
                "media": "screen"
            }
        },
        "bootstrap-toggle": {
            "handle": "bootstrap-toggle",
            "thirdparty": true,
            "details": {
                "source": {
                    "full": "dist/vendor/bootstrap-toggle/css/bootstrap-toggle .css",
                    "min": "dist/vendor/bootstrap-toggle/css/bootstrap-toggle.min.css",
                    "map": "dist/vendor/bootstrap-toggle/css/bootstrap-toggle.css.map"
                },
                "version": "2.2.1",
                "dependencies": [],
                "media": "screen"
            }
        },
        "bootstrap-cerulean": {
            "handle": "bootswatch-cerulean",
            "thirdparty": true,
            "details": {
                "source": {
                    "full": "dist/vendor/bootswatch/dist/cerulean/bootstrap.css",
                    "min": "dist/vendor/bootswatch/dist/cerulean/bootstrap.min.css",
                    "map": false
                },
                "version": "4.0.0",
                "dependencies": [
                    "bootstrap"
                ],
                "media": "screen"
            }
        },
        "bootstrap-cosmo": {
            "handle": "bootswatch-cosmo",
            "thirdparty": true,
            "details": {
                "source": {
                    "full": "dist/vendor/bootswatch/dist/cosmo/bootstrap.css",
                    "min": "dist/vendor/bootswatch/dist/cosmo/bootstrap.min.css",
                    "map": false
                },
                "version": "4.0.0",
                "dependencies": [
                    "bootstrap"
                ],
                "media": "screen"
            }
        },
        "bootstrap-cyborg": {
            "handle": "bootswatch-cyborg",
            "thirdparty": true,
            "details": {
                "source": {
                    "full": "dist/vendor/bootswatch/dist/cyborg/bootstrap.css",
                    "min": "dist/vendor/bootswatch/dist/cyborg/bootstrap.min.css",
                    "map": false
                },
                "version": "4.0.0",
                "dependencies": [
                    "bootstrap"
                ],
                "media": "screen"
            }
        },
        "bootstrap-darkly": {
            "handle": "bootswatch-darkly",
            "thirdparty": true,
            "details": {
                "source": {
                    "full": "dist/vendor/bootswatch/dist/darkly/bootstrap.css",
                    "min": "dist/vendor/bootswatch/dist/darkly/bootstrap.min.css",
                    "map": false
                },
                "version": "4.0.0",
                "dependencies": [
                    "bootstrap"
                ],
                "media": "screen"
            }
        },
        "bootstrap-flatly": {
            "handle": "bootswatch-flatly",
            "thirdparty": true,
            "details": {
                "source": {
                    "full": "dist/vendor/bootswatch/dist/flatly/bootstrap.css",
                    "min": "dist/vendor/bootswatch/dist/flatly/bootstrap.min.css",
                    "map": false
                },
                "version": "4.0.0",
                "dependencies": [
                    "bootstrap"
                ],
                "media": "screen"
            }
        },
        "bootstrap-journal": {
            "handle": "bootswatch-journal",
            "thirdparty": true,
            "details": {
                "source": {
                    "full": "dist/vendor/bootswatch/dist/journal/bootstrap.css",
                    "min": "dist/vendor/bootswatch/dist/journal/bootstrap.min.css",
                    "map": false
                },
                "version": "4.0.0",
                "dependencies": [
                    "bootstrap"
                ],
                "media": "screen"
            }
        },
        "bootstrap-litera": {
            "handle": "bootswatch-litera",
            "thirdparty": true,
            "details": {
                "source": {
                    "full": "dist/vendor/bootswatch/dist/litera/bootstrap.css",
                    "min": "dist/vendor/bootswatch/dist/litera/bootstrap.min.css",
                    "map": false
                },
                "version": "4.0.0",
                "dependencies": [
                    "bootstrap"
                ],
                "media": "screen"
            }
        },
        "bootstrap-lumen": {
            "handle": "bootswatch-lumen",
            "thirdparty": true,
            "details": {
                "source": {
                    "full": "dist/vendor/bootswatch/dist/lumen/bootstrap.css",
                    "min": "dist/vendor/bootswatch/dist/lumen/bootstrap.min.css",
                    "map": false
                },
                "version": "4.0.0",
                "dependencies": [
                    "bootstrap"
                ],
                "media": "screen"
            }
        },
        "bootstrap-lux": {
            "handle": "bootswatch-lux",
            "thirdparty": true,
            "details": {
                "source": {
                    "full": "dist/vendor/bootswatch/dist/lux/bootstrap.css",
                    "min": "dist/vendor/bootswatch/dist/lux/bootstrap.min.css",
                    "map": false
                },
                "version": "4.0.0",
                "dependencies": [
                    "bootstrap"
                ],
                "media": "screen"
            }
        },
        "bootstrap-materia": {
            "handle": "bootswatch-materia",
            "thirdparty": true,
            "details": {
                "source": {
                    "full": "dist/vendor/bootswatch/dist/materia/bootstrap.css",
                    "min": "dist/vendor/bootswatch/dist/materia/bootstrap.min.css",
                    "map": false
                },
                "version": "4.0.0",
                "dependencies": [
                    "bootstrap"
                ],
                "media": "screen"
            }
        },
        "bootstrap-minty": {
            "handle": "bootswatch-minty",
            "thirdparty": true,
            "details": {
                "source": {
                    "full": "dist/vendor/bootswatch/dist/minty/bootstrap.css",
                    "min": "dist/vendor/bootswatch/dist/minty/bootstrap.min.css",
                    "map": false
                },
                "version": "4.0.0",
                "dependencies": [
                    "bootstrap"
                ],
                "media": "screen"
            }
        },
        "bootstrap-pulse": {
            "handle": "bootswatch-pulse",
            "thirdparty": true,
            "details": {
                "source": {
                    "full": "dist/vendor/bootswatch/dist/pulse/bootstrap.css",
                    "min": "dist/vendor/bootswatch/dist/pulse/bootstrap.min.css",
                    "map": false
                },
                "version": "4.0.0",
                "dependencies": [
                    "bootstrap"
                ],
                "media": "screen"
            }
        },
        "bootstrap-sandstone": {
            "handle": "bootswatch-sandstone",
            "thirdparty": true,
            "details": {
                "source": {
                    "full": "dist/vendor/bootswatch/dist/sandstone/bootstrap.css",
                    "min": "dist/vendor/bootswatch/dist/sandstone/bootstrap.min.css",
                    "map": false
                },
                "version": "4.0.0",
                "dependencies": [
                    "bootstrap"
                ],
                "media": "screen"
            }
        },
        "bootstrap-simplex": {
            "handle": "bootswatch-simplex",
            "thirdparty": true,
            "details": {
                "source": {
                    "full": "dist/vendor/bootswatch/dist/simplex/bootstrap.css",
                    "min": "dist/vendor/bootswatch/dist/simplex/bootstrap.min.css",
                    "map": false
                },
                "version": "4.0.0",
                "dependencies": [
                    "bootstrap"
                ],
                "media": "screen"
            }
        },
        "bootstrap-sketchy": {
            "handle": "bootswatch-sketchy",
            "thirdparty": true,
            "details": {
                "source": {
                    "full": "dist/vendor/bootswatch/dist/sketchy/bootstrap.css",
                    "min": "dist/vendor/bootswatch/dist/sketchy/bootstrap.min.css",
                    "map": false
                },
                "version": "4.0.0",
                "dependencies": [
                    "bootstrap"
                ],
                "media": "screen"
            }
        },
        "bootstrap-slate": {
            "handle": "bootswatch-slate",
            "thirdparty": true,
            "details": {
                "source": {
                    "full": "dist/vendor/bootswatch/dist/slate/bootstrap.css",
                    "min": "dist/vendor/bootswatch/dist/slate/bootstrap.min.css",
                    "map": false
                },
                "version": "4.0.0",
                "dependencies": [
                    "bootstrap"
                ],
                "media": "screen"
            }
        },
        "bootstrap-solar": {
            "handle": "bootswatch-solar",
            "thirdparty": true,
            "details": {
                "source": {
                    "full": "dist/vendor/bootswatch/dist/solar/bootstrap.css",
                    "min": "dist/vendor/bootswatch/dist/solar/bootstrap.min.css",
                    "map": false
                },
                "version": "4.0.0",
                "dependencies": [
                    "bootstrap"
                ],
                "media": "screen"
            }
        },
        "bootstrap-spacelab": {
            "handle": "bootswatch-spacelab",
            "thirdparty": true,
            "details": {
                "source": {
                    "full": "dist/vendor/bootswatch/dist/spacelab/bootstrap.css",
                    "min": "dist/vendor/bootswatch/dist/spacelab/bootstrap.min.css",
                    "map": false
                },
                "version": "4.0.0",
                "dependencies": [
                    "bootstrap"
                ],
                "media": "screen"
            }
        },
        "bootstrap-superhero": {
            "handle": "bootswatch-superhero",
            "thirdparty": true,
            "details": {
                "source": {
                    "full": "dist/vendor/bootswatch/dist/superhero/bootstrap.css",
                    "min": "dist/vendor/bootswatch/dist/superhero/bootstrap.min.css",
                    "map": false
                },
                "version": "4.0.0",
                "dependencies": [
                    "bootstrap"
                ],
                "media": "screen"
            }
        },
        "bootstrap-united": {
            "handle": "bootswatch-united",
            "thirdparty": true,
            "details": {
                "source": {
                    "full": "dist/vendor/bootswatch/dist/united/bootstrap.css",
                    "min": "dist/vendor/bootswatch/dist/united/bootstrap.min.css",
                    "map": false
                },
                "version": "4.0.0",
                "dependencies": [
                    "bootstrap"
                ],
                "media": "screen"
            }
        },
        "bootstrap-yeti": {
            "handle": "bootswatch-yeti",
            "thirdparty": true,
            "details": {
                "source": {
                    "full": "dist/vendor/bootswatch/dist/yeti/bootstrap.css",
                    "min": "dist/vendor/bootswatch/dist/yeti/bootstrap.min.css",
                    "map": false
                },
                "version": "4.0.0",
                "dependencies": [
                    "bootstrap"
                ],
                "media": "screen"
            }
        },
        "spectrum": {
            "handle": "spectrum",
            "thirdparty": true,
            "details": {
                "source": {
                    "full": "dist/vendor/spectrum/spectrum.css",
                    "min": false,
                    "map": false
                },
                "version": "1.8.0",
                "dependencies": [],
                "media": "screen"
            }
        },
        "frontend": {
            "handle": "frontend",
            "thirdparty": false,
            "details": {
                "source": {
                    "full": "dist/css/frontend.css",
                    "min": "dist/css/frontend.min.css",
                    "map": false
                },
                "version": "0.2.0",
                "dependencies": [
                    "material-design"
                ],
                "media": "screen"
            }
        },
        "backend": {
            "handle": "backend",
            "thirdparty": false,
            "details": {
                "source": {
                    "full": "dist/css/backend.css",
                    "min": "dist/css/backend.min.css",
                    "map": false
                },
                "version": "0.2.0",
                "dependencies": [],
                "media": "screen"
            }
        },
        "login": {
            "handle": "login",
            "thirdparty": false,
            "details": {
                "source": {
                    "full": "dist/css/login.css",
                    "min": "dist/css/login.min.css",
                    "map": false
                },
                "version": "0.2.0",
                "dependencies": [],
                "media": "screen"
            }
        }
    },
    "media": {},
    "fonts": {}
}
